zoltr for Forecasters • zoltr
…
And as a data.frame:

forecast_data <- suppressMessages(forecast_data(conn, new_forecast_id, is_json=FALSE))
forecast_data
#> # A tibble: 154 x 7
#>    location   target       type  unit  bin_start_incl bin_end_notincl value
#>    <chr>      <chr>        <chr> <chr>          <dbl>           <dbl> <dbl>
#>  1 US Nation… Season onset point week              NA            NA    50  
#>  2 US Nation… Season onset bin   week              40            41     1  
#>  3 US Nation… Season peak… point week              NA            NA     5  
#>  4 US Nation… Season peak… bin   week              40            41     1  
#>  5 US Nation… Season peak… point perc…             NA            NA     3.9
#>  6 US Nation… Season peak… bin   perc…              0             0.1   1  
#>  7 US Nation… 1 wk ahead   point perc…             NA            NA     3.2
#>  8 US Nation… 1 wk ahead   bin   perc…              0             0.1   1  
#>  9 US Nation… 2 wk ahead   point perc…             NA            NA     3.3
#> 10 US Nation… 2 wk ahead   bin   perc…              0             0.1   1  
#> # … with 144 more rows
…
