Getting Started • zoltr
…
We use the job_data() function when the query is successfully completed to get the results as a data.frame. Putting it together:

job_url <- submit_query(zoltar_connection, project_url, list())
busy_poll_job(zoltar_connection, job_url)
#> polling for status change. job: http://127.0.0.1:8000/api/job/102/
#> QUEUED
#> SUCCESS
the_job_data <- job_data(zoltar_connection, job_url)
the_job_data
#> # A tibble: 62 x 15
#>    model timezero   season unit  target class value cat    prob sample quantile
#>    <chr> <date>     <chr>  <chr> <chr>  <chr> <chr> <chr> <dbl> <chr>     <dbl>
#>  1 docs… 2011-10-02 2011-… loca… pct n… bin   <NA>  1.1    0.3  <NA>         NA
#>  2 docs… 2011-10-02 2011-… loca… pct n… bin   <NA>  2.2    0.2  <NA>         NA
#>  3 docs… 2011-10-02 2011-… loca… pct n… bin   <NA>  3.3    0.5  <NA>         NA
#>  4 docs… 2011-10-02 2011-… loca… cases… bin   <NA>  2      0.1  <NA>         NA
#>  5 docs… 2011-10-02 2011-… loca… cases… bin   <NA>  50     0.9  <NA>         NA
#>  6 docs… 2011-10-02 2011-… loca… seaso… bin   <NA>  mode…  0.1  <NA>         NA
#>  7 docs… 2011-10-02 2011-… loca… seaso… bin   <NA>  seve…  0.9  <NA>         NA
#>  8 docs… 2011-10-02 2011-… loca… above… bin   <NA>  True   0.9  <NA>         NA
#>  9 docs… 2011-10-02 2011-… loca… above… bin   <NA>  False  0.1  <NA>         NA
#> 10 docs… 2011-10-02 2011-… loca… Seaso… bin   <NA>  2019…  0.01 <NA>         NA
#> # … with 52 more rows, and 4 more variables: family <chr>, param1 <dbl>,
#> #   param2 <dbl>, param3 <lgl>
…
