Project Owners • zoltr
…
Query a project’s forecast data

Now that the project has some forecast data, let’s query it using the submit_query() and job_data() functions. Because, like uploading a forecast, querying involves multiple steps: 1) submit the query to receive a job url, 2) poll the job until it finishes, and 3) download the query results as a data.frame. Note that we use list() here, which will query every forecast in the project. This is will fail for even moderately-sized projects because they could have many thousands or millions of rows. More typically one would constrain the query (TBD).

job_url <- submit_query(zoltar_connection, project_url, list())
busy_poll_job(zoltar_connection, job_url)
#> polling for status change. job: http://127.0.0.1:8000/api/job/72/
#> QUEUED
#> SUCCESS

Like above, hopefully you’ll “SUCCESS” eventually printed. Let’s download the results:

the_job_data <- job_data(zoltar_connection, job_url)
the_job_data
#> # A tibble: 62 x 15
#>    model timezero   season unit  target class value cat    prob sample quantile
#>    <chr> <date>     <chr>  <chr> <chr>  <chr> <chr> <chr> <dbl> <chr>     <dbl>
#>  1 an a… 2011-10-02 2011-… loca… Seaso… bin   <NA>  2019…  0.01 <NA>         NA
#>  2 an a… 2011-10-02 2011-… loca… Seaso… bin   <NA>  2019…  0.1  <NA>         NA
#>  3 an a… 2011-10-02 2011-… loca… Seaso… bin   <NA>  2019…  0.89 <NA>         NA
#>  4 an a… 2011-10-02 2011-… loca… seaso… bin   <NA>  mode…  0.1  <NA>         NA
#>  5 an a… 2011-10-02 2011-… loca… seaso… bin   <NA>  seve…  0.9  <NA>         NA
#>  6 an a… 2011-10-02 2011-… loca… Seaso… bin   <NA>  2019…  0.01 <NA>         NA
#>  7 an a… 2011-10-02 2011-… loca… Seaso… bin   <NA>  2019…  0.05 <NA>         NA
#>  8 an a… 2011-10-02 2011-… loca… Seaso… bin   <NA>  2019…  0.05 <NA>         NA
#>  9 an a… 2011-10-02 2011-… loca… Seaso… bin   <NA>  2020…  0.89 <NA>         NA
#> 10 an a… 2011-10-02 2011-… loca… above… bin   <NA>  True   0.9  <NA>         NA
#> # … with 52 more rows, and 4 more variables: family <chr>, param1 <dbl>,
#> #   param2 <dbl>, param3 <lgl>
…
